# Blender MTL File: 'airplane_engine.blend'
# Material Count: 4

newmtl Carcaça
Ns 96.078431
Ka 0.300000 0.300000 0.300000
Kd 0.683972 0.355875 0.000000
Ks 0.500000 0.500000 0.500000
Ke 0.000000 0.000000 0.000000
Ni 1.000000
d 1.000000
illum 5
map_Kd airplane_engine_Carcaça_BaseColor.png
map_bump airplane_engine_Carcaça_Normal.png
map_metallic airplane_engine_Carcaça_Metallic.png
map_roughness airplane_engine_Carcaça_Roughness.png
map_ao airplane_engine_Carcaça_OcclusionRoughnessMetallic.png

newmtl Rolamento
Ns 96.078431
Ka 0.300000 0.300000 0.300000
Kd 0.683972 0.355875 0.000000
Ks 0.500000 0.500000 0.500000
Ke 0.000000 0.000000 0.000000
Ni 1.000000
d 1.000000
illum 5
map_Kd airplane_engine_Rolamento_BaseColor.png
map_metallic airplane_engine_Rolamento_Metallic.png
map_roughness airplane_engine_Rolamento_Roughness.png
map_ao airplane_engine_Rolamento_OcclusionRoughnessMetallic.png
map_bump airplane_engine_Rolamento_Normal.png

newmtl Hélices
Ns 96.078431
Ka 0.300000 0.300000 0.300000
Kd 0.683972 0.355875 0.000000
Ks 0.500000 0.500000 0.500000
Ke 0.000000 0.000000 0.000000
Ni 1.000000
d 1.000000
illum 5
map_Kd airplane_engine_Hélices_BaseColor.png
map_metallic airplane_engine_Hélices_Metallic.png
map_roughness airplane_engine_Hélices_Roughness.png
map_ao airplane_engine_Hélices_OcclusionRoughnessMetallic.png
map_bump airplane_engine_Hélices_Normal.png

#newmtl Apoio
#Ns 96.078431
#Ka 0.300000 0.300000 0.300000
#Kd 0.683972 0.355875 0.000000
#Ks 0.500000 0.500000 0.500000
#Ke 0.000000 0.000000 0.000000
#Ni 1.000000
#d 1.000000
#illum 5
#map_Kd airplane_engine_Apoio_BaseColor.png
#map_metallic airplane_engine_Apoio_Metallic.png
#map_roughness airplane_engine_Apoio_Roughness.png
#map_ao airplane_engine_Apoio_OcclusionRoughnessMetallic.png
#map_bump airplane_engine_Apoio_Normal.png
